<svg width="21" height="15" viewBox="0 0 21 15" fill="none" xmlns="http://www.w3.org/2000/svg">
<path d="M19.7931 4.20694L9.65204 14.348C9.25197 14.7481 8.72005 14.9694 8.15517 14.9694H8.15287C7.58568 14.9694 7.05379 14.7481 6.65369 14.3457L1.03134 8.70654C0.631269 8.30647 0.412415 7.77455 0.412415 7.20967C0.412415 6.64479 0.633711 6.11286 1.03378 5.7128C1.43385 5.31275 1.96577 5.09144 2.53065 5.09144C3.09553 5.09144 3.62747 5.31273 4.02752 5.7128L8.16241 9.84555L16.7972 1.21072C17.1973 0.810648 17.7292 0.589355 18.2941 0.589355C18.859 0.589355 19.3909 0.810652 19.791 1.21072C20.6192 2.0368 20.6192 3.38069 19.7931 4.20677L19.7931 4.20694Z" fill="#335b4e"/>
</svg>
