<svg width="87" height="31" viewBox="0 0 87 31" fill="none" xmlns="http://www.w3.org/2000/svg">
<path d="M7.39728 7.79729H10.411L8.90413 3.96167L7.39728 7.79729Z" fill="#2FABF7"/>
<path d="M44.7945 4.50961C44.5206 4.37262 44.1096 4.37262 43.6986 4.37262H40.9589V6.5644H43.6986C44.1096 6.5644 44.5206 6.5644 44.7945 6.42741C45.0685 6.29043 45.2055 5.87947 45.2055 5.46851C45.3425 4.92057 45.0685 4.64659 44.7945 4.50961Z" fill="#228FE0"/>
<path d="M74.1096 0.400024V2.04386L73.2877 0.400024H66.8493V2.04386L66.0274 0.400024H57.2603C55.7534 0.400024 54.5205 0.673995 53.4247 1.22194V0.400024H47.2603V1.22194C46.5753 0.673995 45.7534 0.400024 44.6575 0.400024H22.6027L21.0959 3.82468L19.589 0.400024H12.6027V2.04386L11.7808 0.400024H5.89041L3.15068 6.83838L0 13.9617H3.15068H6.9863L7.80822 11.7699H9.72603L10.5479 13.9617H18.4931V12.3178L19.1781 13.9617H23.1507L23.8356 12.3178V13.9617H42.8767V10.4H43.1507C43.4247 10.4 43.4247 10.4 43.4247 10.811V13.8247H53.2877V13.0028C54.1096 13.4137 55.3425 13.8247 56.9863 13.8247H61.0959L61.9178 11.6329H63.8356L64.6575 13.8247H72.6027V11.7699L73.8356 13.8247H80.274V0.400024H74.1096ZM27.8082 11.9069H25.4794V4.37263L22.1918 11.9069H20.137L16.8493 4.37263V11.9069H12.1918L11.2329 9.85208H6.57534L5.75342 12.0439H3.15068L7.26027 2.31783H10.6849L14.5205 11.4959V2.31783H18.2192L21.2329 8.89318L23.9726 2.31783H27.8082V11.9069ZM37.1233 4.37263H31.7808V6.15345H36.9863V8.07126H31.7808V9.98906H37.1233V12.0439H29.4521V2.31783H37.1233V4.37263ZM47.3973 8.34523C47.6712 8.89318 47.8082 9.30413 47.8082 10.1261V12.0439H45.4794V10.811C45.4794 10.263 45.4794 9.44112 45.0685 8.89318C44.6575 8.48222 44.2466 8.48222 43.4247 8.48222H40.9589V12.0439H38.6301V2.31783H43.8356C45.0685 2.31783 45.8904 2.31783 46.5753 2.72879C47.2603 3.13975 47.6712 3.82468 47.6712 4.92057C47.6712 6.42742 46.7123 7.24934 46.0274 7.52331C46.7123 7.6603 47.1233 8.07126 47.3973 8.34523ZM51.5068 11.9069H49.1781V2.18085H51.5068V11.9069ZM78.4931 11.9069H75.2055L70.8219 4.6466V11.9069H66.1644L65.3425 9.85208H60.5479L59.726 12.0439H57.1233C56.0274 12.0439 54.6575 11.7699 53.8356 10.948C53.0137 10.1261 52.6027 9.03016 52.6027 7.24934C52.6027 5.87948 52.8767 4.50962 53.8356 3.41373C54.5205 2.59181 55.7534 2.31783 57.2603 2.31783H59.452V4.37263H57.2603C56.4383 4.37263 56.0274 4.50962 55.4794 4.92057C55.0685 5.33153 54.7945 6.15345 54.7945 7.11235C54.7945 8.20825 54.9315 8.89318 55.4794 9.44112C55.8904 9.85208 56.4383 9.98907 57.1233 9.98907H58.0822L61.2329 2.45482H64.6575L68.4931 11.6329V2.45482H71.9178L75.8904 9.16715V2.45482H78.2192V11.9069H78.4931Z" fill="#0571C1"/>
<path d="M61.3699 7.79729H64.5206L63.0137 3.96167L61.3699 7.79729Z" fill="#228FE0"/>
<path d="M38.0822 27.5233V19.7151L34.5206 23.5507L38.0822 27.5233Z" fill="#228FE0"/>
<path d="M23.4247 20.674V22.4548H28.4932V24.3726H23.4247V26.4274H29.0411L31.6439 23.5507L29.1781 20.674H23.4247Z" fill="#2FABF7"/>
<path d="M43.2877 20.674H40.4109V23.1398H43.4246C44.2466 23.1398 44.7945 22.7288 44.7945 21.9069C44.6575 21.085 44.1096 20.674 43.2877 20.674Z" fill="#228FE0"/>
<path d="M85.6164 23.0028V16.8384H83.9726H79.863C78.6301 16.8384 77.6712 17.1124 76.9863 17.6603V16.8384H70.6849C69.726 16.8384 68.4931 17.1124 67.9452 17.6603V16.8384H56.8493V17.6603C56.0274 16.9754 54.5205 16.8384 53.8356 16.8384H46.4383V17.6603C45.7534 16.9754 44.1096 16.8384 43.2876 16.8384H35.0685L33.1507 18.8932L31.3698 16.8384H19.0411V30.263H31.0959L33.0137 28.2082L34.7945 30.263H42.1918V27.1124H43.1507C44.1096 27.1124 45.3424 27.1124 46.3013 26.7014V30.4H52.4657V26.8384H52.7397C53.1507 26.8384 53.1507 26.8384 53.1507 27.2493V30.4H71.7808C73.0137 30.4 74.2466 30.1261 74.9315 29.5781V30.4H80.8219C82.0548 30.4 83.2876 30.263 84.1096 29.7151C85.4794 28.8932 86.3013 27.3863 86.3013 25.6055C86.3013 24.6466 86.0274 23.6877 85.6164 23.0028ZM43.1507 25.1945H40.4109V28.4822H36.0274L33.2876 25.3315L30.4109 28.4822H21.3698V18.7562H30.5479L33.2876 21.9069L36.1644 18.7562H43.4246C45.2055 18.7562 47.2603 19.3041 47.2603 21.9069C47.1233 24.6466 45.2055 25.1945 43.1507 25.1945ZM56.8493 24.6466C57.1233 25.0576 57.2602 25.6055 57.2602 26.4274V28.3452H54.9315V27.1124C54.9315 26.5644 54.9315 25.6055 54.5205 25.1945C54.2465 24.7836 53.6986 24.7836 52.8767 24.7836H50.4109V28.3452H48.0822V18.6192H53.2876C54.3835 18.6192 55.3424 18.6192 56.0274 19.0302C56.7123 19.4411 57.2602 20.1261 57.2602 21.2219C57.2602 22.7288 56.3013 23.5507 55.6164 23.8247C56.3013 24.0987 56.7123 24.3726 56.8493 24.6466ZM66.3013 20.674H60.9589V22.4548H66.1644V24.3726H60.9589V26.2904H66.3013V28.3452H58.6301V18.6192H66.3013V20.674ZM72.0548 28.3452H67.6712V26.2904H72.0548C72.4657 26.2904 72.7397 26.2904 73.0137 26.0165C73.1507 25.8795 73.2876 25.6055 73.2876 25.3315C73.2876 25.0576 73.1507 24.7836 73.0137 24.6466C72.8767 24.5096 72.6027 24.3726 72.1917 24.3726C70 24.2356 67.3972 24.3726 67.3972 21.3589C67.3972 19.9891 68.2191 18.4822 70.6849 18.4822H75.2055V20.811H70.9589C70.5479 20.811 70.2739 20.811 70 20.948C69.726 21.085 69.726 21.3589 69.726 21.6329C69.726 22.0439 70 22.1808 70.2739 22.3178C70.5479 22.4548 70.8219 22.4548 71.0959 22.4548H72.3287C73.5616 22.4548 74.3835 22.7288 74.9315 23.2767C75.3424 23.6877 75.6164 24.3726 75.6164 25.3315C75.6164 27.3863 74.3835 28.3452 72.0548 28.3452ZM83.8356 27.3863C83.2876 27.9343 82.3287 28.3452 80.9589 28.3452H76.5753V26.2904H80.9589C81.3698 26.2904 81.6438 26.2904 81.9178 26.0165C82.0548 25.8795 82.1917 25.6055 82.1917 25.3315C82.1917 25.0576 82.0548 24.7836 81.9178 24.6466C81.7808 24.5096 81.5068 24.3726 81.0959 24.3726C78.9041 24.2356 76.3013 24.3726 76.3013 21.3589C76.3013 19.9891 77.1233 18.4822 79.589 18.4822H84.1096V20.811H80C79.589 20.811 79.315 20.811 79.0411 20.948C78.7671 21.085 78.7671 21.3589 78.7671 21.6329C78.7671 22.0439 78.9041 22.1808 79.315 22.3178C79.589 22.4548 79.863 22.4548 80.137 22.4548H81.3698C82.6027 22.4548 83.4246 22.7288 83.9726 23.2767C84.1096 23.2767 84.1096 23.4137 84.1096 23.4137C84.5205 23.9617 84.6575 24.6466 84.6575 25.3315C84.6575 26.1534 84.3835 26.8384 83.8356 27.3863Z" fill="#0571C1"/>
<path d="M54.3836 20.948C54.1096 20.811 53.6987 20.811 53.2877 20.811H50.548V23.0028H53.2877C53.6987 23.0028 54.1096 23.0028 54.3836 22.8658C54.6576 22.7288 54.7945 22.3178 54.7945 21.9069C54.9315 21.3589 54.6576 21.085 54.3836 20.948Z" fill="#228FE0"/>
<path d="M44.7945 4.50961C44.5206 4.37262 44.1096 4.37262 43.6986 4.37262H40.9589V6.5644H43.6986C44.1096 6.5644 44.5206 6.5644 44.7945 6.42741C45.0685 6.29043 45.2055 5.87947 45.2055 5.46851C45.3425 4.92057 45.0685 4.64659 44.7945 4.50961Z" fill="#228FE0"/>
<path d="M61.3699 7.79729H64.5206L63.0137 3.96167L61.3699 7.79729Z" fill="#228FE0"/>
<path d="M38.0822 27.5233V19.7151L34.5206 23.5507L38.0822 27.5233Z" fill="#228FE0"/>
<path d="M43.2877 20.674H40.4109V23.1398H43.4246C44.2466 23.1398 44.7945 22.7288 44.7945 21.9069C44.6575 21.085 44.1096 20.674 43.2877 20.674Z" fill="#228FE0"/>
<path d="M54.3836 20.948C54.1096 20.811 53.6987 20.811 53.2877 20.811H50.548V23.0028H53.2877C53.6987 23.0028 54.1096 23.0028 54.3836 22.8658C54.6576 22.7288 54.7945 22.3178 54.7945 21.9069C54.9315 21.3589 54.6576 21.085 54.3836 20.948Z" fill="#228FE0"/>
<path d="M42.3287 28.0713L40.4109 26.0165V28.3452H35.8904L33.1507 25.1945L30.137 28.3452H21.0959V18.7562H30.274L33.1507 21.9069L34.5205 20.263L31.0959 16.8384H19.0411V30.263H31.0959L33.1507 28.2082L34.9315 30.263H42.3287V28.0713Z" fill="#2FABF7"/>
<path d="M28.0822 13.8247L26.3014 11.9069H25.4795V11.085L23.4247 9.03016L22.0548 11.9069H20.137L16.8493 4.37263V11.9069H12.1918L11.2329 9.85208H6.57534L5.61644 11.9069H3.15068L7.26027 2.31783H10.6849L14.5205 11.4959V2.31783H16.5753L14.6575 0.400024H12.6027V2.04386L11.9178 0.400024H5.89041L3.15068 6.83838L0 13.8247H3.15068H7.12329L7.94521 11.7699H9.86301L10.8219 13.8247H18.4931V12.1808L19.1781 13.8247H23.1507L23.8356 12.1808V13.8247H28.0822Z" fill="#2FABF7"/>
<path d="M21.7808 7.52332L19.5891 5.33154L21.2329 8.89319L21.7808 7.52332Z" fill="#2FABF7"/>
<path d="M84.1096 29.5781C85.3425 28.7562 86.1644 27.3863 86.3014 25.8795L84.3836 23.9617C84.5206 24.3726 84.6576 24.7836 84.6576 25.3315C84.6576 26.1535 84.3836 26.8384 83.8356 27.3863C83.2877 27.9343 82.3288 28.3452 80.9589 28.3452H76.5754V26.2904H80.9589C81.3699 26.2904 81.6439 26.2904 81.9178 26.0165C82.0548 25.8795 82.1918 25.6055 82.1918 25.3315C82.1918 25.0576 82.0548 24.7836 81.9178 24.6466C81.7808 24.5096 81.5069 24.3726 81.0959 24.3726C78.9041 24.2356 76.3014 24.3726 76.3014 21.3589C76.3014 19.9891 77.1233 18.7562 79.1781 18.4822L77.6712 16.9754C77.3973 17.1124 77.2603 17.2493 77.1233 17.2493V16.4274H70.8219C69.863 16.4274 68.6302 16.7014 68.0822 17.2493V16.4274H56.8493V17.2493C56.0274 16.5644 54.5206 16.4274 53.8356 16.4274H46.4384V17.2493C45.7535 16.5644 44.1096 16.4274 43.2877 16.4274H35.0685L33.1507 18.4822L31.3699 16.4274H29.863L33.9726 20.537L36.0274 18.3452H43.2877C45.0685 18.3452 47.1233 18.8932 47.1233 21.4959C47.1233 24.2356 45.2055 24.7836 43.1507 24.7836H40.411V26.8384L42.4658 28.8932V26.8384H43.1507C44.1096 26.8384 45.3425 26.8384 46.3014 26.4274V30.1261H52.4658V26.5644H52.7397C53.1507 26.5644 53.1507 26.5644 53.1507 26.9754V30.1261H71.7808C73.0137 30.1261 74.2466 29.8521 74.9315 29.3041V30.1261H80.8219C81.9178 30.263 83.1507 30.1261 84.1096 29.5781ZM56.8493 24.6466C57.1233 25.0576 57.2603 25.6055 57.2603 26.4274V28.3452H54.9315V27.1124C54.9315 26.5644 54.9315 25.6055 54.5206 25.1946C54.2466 24.7836 53.6987 24.7836 52.8767 24.7836H50.411V28.3452H48.0822V18.6192H53.2877C54.3836 18.6192 55.3425 18.6192 56.0274 19.0302C56.7124 19.4411 57.2603 20.1261 57.2603 21.2219C57.2603 22.7288 56.3014 23.5507 55.6165 23.8247C56.3014 24.0987 56.7124 24.3726 56.8493 24.6466ZM66.3014 20.674H60.9589V22.4548H66.1644V24.3726H60.9589V26.2904H66.3014V28.3452H58.6302V18.6192H66.3014V20.674ZM72.0548 28.3452H67.6713V26.2904H72.0548C72.4658 26.2904 72.7397 26.2904 73.0137 26.0165C73.1507 25.8795 73.2877 25.6055 73.2877 25.3315C73.2877 25.0576 73.1507 24.7836 73.0137 24.6466C72.8767 24.5096 72.6028 24.3726 72.1918 24.3726C70 24.2356 67.3973 24.3726 67.3973 21.3589C67.3973 19.9891 68.2192 18.4822 70.685 18.4822H75.2055V20.811H70.9589C70.548 20.811 70.274 20.811 70 20.948C69.726 21.085 69.726 21.3589 69.726 21.6329C69.726 22.0439 70 22.1809 70.274 22.3178C70.548 22.4548 70.8219 22.4548 71.0959 22.4548H72.3288C73.5617 22.4548 74.3836 22.7288 74.9315 23.2767C75.3425 23.6877 75.6165 24.3726 75.6165 25.3315C75.6165 27.3863 74.3836 28.3452 72.0548 28.3452Z" fill="#228FE0"/>
<path d="M78.6301 21.6329C78.6301 22.0439 78.7671 22.1808 79.1781 22.3178C79.452 22.4548 79.726 22.4548 80 22.4548H81.2329C82.0548 22.4548 82.6027 22.5918 83.1507 22.8658L81.0959 20.811H79.863C79.452 20.811 79.1781 20.811 78.9041 20.948C78.7671 21.085 78.6301 21.3589 78.6301 21.6329Z" fill="#228FE0"/>
<path d="M73.8356 13.4137L74.1096 13.8247H74.2466L73.8356 13.4137Z" fill="#228FE0"/>
<path d="M66.3014 5.87946L68.6302 11.4959V8.20822L66.3014 5.87946Z" fill="#228FE0"/>
<path d="M42.8767 10.4H43.1507C43.4247 10.4 43.4247 10.4 43.4247 10.811V13.8247H53.2877V13.0027C54.1096 13.4137 55.3425 13.8247 56.9863 13.8247H61.0959L61.9178 11.6329H63.8356L64.6575 13.8247H72.6027V12.4548L70.6849 10.537V12.0438H66.0274L65.3425 9.85206H60.5479L59.726 12.0438H57.1233C56.0274 12.0438 54.6575 11.7699 53.8356 10.9479C53.0137 10.126 52.6027 9.03014 52.6027 7.24932C52.6027 5.87945 52.8767 4.50959 53.8356 3.4137C54.5205 2.59178 55.7534 2.31781 57.2603 2.31781H59.4521V4.37261H57.2603C56.4384 4.37261 56.0274 4.50959 55.4795 4.92055C55.0685 5.33151 54.7945 6.15343 54.7945 7.11233C54.7945 8.20822 54.9315 8.89315 55.4795 9.4411C55.8904 9.85206 56.4384 9.98904 57.1233 9.98904H58.0822L61.2329 2.45479H62.6027L60.6849 0.536987H57.1233C55.6164 0.536987 54.3836 0.810961 53.2877 1.35891V0.536987H47.2603V1.35891C46.5753 0.810961 45.7534 0.536987 44.6575 0.536987H22.6027L21.0959 3.96164L19.589 0.536987H13.5616L15.4795 2.45479H18.2192L20.5479 7.52329L21.3699 8.34521L23.8356 2.31781H27.6712V12.0438H25.3425V4.50959L23.0137 9.98904L26.9863 13.9616H42.7397L42.8767 10.4ZM49.1781 2.31781H51.5069V12.0438H49.1781V2.31781ZM37.1233 4.37261H31.7808V6.15343H36.9863V8.07123H31.7808V9.98904H37.1233V12.0438H29.4521V2.31781H37.1233V4.37261ZM40.9589 11.9069H38.6301V2.18082H43.8356C45.0685 2.18082 45.8904 2.18082 46.5753 2.59178C47.2603 3.00274 47.6712 3.68767 47.6712 4.78357C47.6712 6.29041 46.7123 7.11233 46.0274 7.3863C46.5753 7.52329 46.9863 7.93425 47.1233 8.20822C47.3973 8.75617 47.5342 9.16713 47.5342 9.98904V11.9069H45.2055V10.674C45.2055 10.126 45.2055 9.30411 44.7945 8.75617C44.6575 8.48219 44.2466 8.48219 43.4247 8.48219H40.9589V11.9069Z" fill="#228FE0"/>
</svg>
