<svg width="395" height="322" viewBox="0 0 395 322" fill="none" xmlns="http://www.w3.org/2000/svg">
<mask id="mask0_11_10" style="mask-type:alpha" maskUnits="userSpaceOnUse" x="1" y="0" width="394" height="322">
<path d="M331.93 0H63.13C46.6569 0.0211735 30.8646 6.57516 19.2173 18.2244C7.56997 29.8736 1.01852 45.6669 1 62.14V259.48C1.01852 275.953 7.56997 291.746 19.2173 303.396C30.8646 315.045 46.6569 321.599 63.13 321.62H331.93C348.403 321.599 364.195 315.045 375.843 303.396C387.49 291.746 394.041 275.953 394.06 259.48V62.14C394.041 45.6669 387.49 29.8736 375.843 18.2244C364.195 6.57516 348.403 0.0211735 331.93 0Z" fill="black"/>
</mask>
<g mask="url(#mask0_11_10)">
<rect x="65.447" y="316.629" width="373.169" height="106.863" transform="rotate(-29.9383 65.447 316.629)" fill="url(#paint0_linear_11_10)"/>
<rect x="279" y="316.236" width="129.675" height="35.0387" transform="rotate(-29.9383 279 316.236)" fill="url(#paint1_linear_11_10)"/>
<rect x="-41.24" y="54.6285" width="265.471" height="93.7475" transform="rotate(-29.9383 -41.24 54.6285)" fill="url(#paint2_linear_11_10)"/>
<rect x="9" y="282.49" width="440.459" height="58.3403" transform="rotate(-29.9383 9 282.49)" fill="url(#paint3_linear_11_10)"/>
<rect x="-55.1934" y="170.471" width="445.62" height="129.337" transform="rotate(-29.9383 -55.1934 170.471)" fill="url(#paint4_linear_11_10)"/>
<rect width="394" height="322" fill="url(#paint5_linear_11_10)"/>
<path d="M331.4 0.189941H62.6C46.1268 0.211115 30.3346 6.7651 18.6873 18.4143C7.03994 30.0635 0.488493 45.8568 0.469971 62.3299V259.67C0.488493 276.143 7.03994 291.936 18.6873 303.586C30.3346 315.235 46.1268 321.789 62.6 321.81H331.4C347.873 321.789 363.665 315.235 375.313 303.586C386.96 291.936 393.511 276.143 393.53 259.67V62.3299C393.511 45.8568 386.96 30.0635 375.313 18.4143C363.665 6.7651 347.873 0.211115 331.4 0.189941ZM254 92.1299H385V201.8H254V92.1299ZM385 62.3299V83.5599H254V8.76994H331.4C345.607 8.77523 359.231 14.4186 369.281 24.4607C379.331 34.5029 384.984 48.1229 385 62.3299ZM62.6 8.76994H245.45V313.23H140V101C139.995 96.3682 138.152 91.9277 134.877 88.6526C131.602 85.3775 127.162 83.5352 122.53 83.5299H8.99997V62.3299C9.01587 48.1229 14.6694 34.5029 24.719 24.4607C34.7687 14.4186 48.3929 8.77523 62.6 8.76994ZM8.99997 92.1299H122.57C124.928 92.1352 127.187 93.0749 128.854 94.7431C130.52 96.4113 131.457 98.6721 131.46 101.03V201.8H8.99997V92.1299ZM8.99997 259.67V210.37H131.46V313.23H62.6C48.3929 313.225 34.7687 307.581 24.719 297.539C14.6694 287.497 9.01587 273.877 8.99997 259.67ZM331.4 313.23H254V210.37H385V259.67C384.984 273.877 379.331 287.497 369.281 297.539C359.231 307.581 345.607 313.225 331.4 313.23Z" fill="url(#paint6_linear_11_10)"/>
</g>
<defs>
<linearGradient id="paint0_linear_11_10" x1="72.0316" y1="419.515" x2="441.835" y2="393.938" gradientUnits="userSpaceOnUse">
<stop stop-color="#FAE07E"/>
<stop offset="1" stop-color="#FBF084" stop-opacity="0.63"/>
</linearGradient>
<linearGradient id="paint1_linear_11_10" x1="280.978" y1="352.876" x2="407.336" y2="347.426" gradientUnits="userSpaceOnUse">
<stop stop-color="#FAE367"/>
<stop offset="1" stop-color="#FAEB67" stop-opacity="0.66"/>
</linearGradient>
<linearGradient id="paint2_linear_11_10" x1="-38.3522" y1="143.269" x2="225.766" y2="78.8619" gradientUnits="userSpaceOnUse">
<stop stop-color="#F7C564"/>
<stop offset="1" stop-color="#FBE167" stop-opacity="0.82"/>
</linearGradient>
<linearGradient id="paint3_linear_11_10" x1="12.3889" y1="342.729" x2="284.122" y2="525.391" gradientUnits="userSpaceOnUse">
<stop stop-color="#F7C362"/>
<stop offset="1" stop-color="#FBEC69" stop-opacity="0.79"/>
</linearGradient>
<linearGradient id="paint4_linear_11_10" x1="-50.9385" y1="295.82" x2="398.862" y2="256.018" gradientUnits="userSpaceOnUse">
<stop stop-color="#F8CB7C"/>
<stop offset="1" stop-color="#FBEE81" stop-opacity="0.74"/>
</linearGradient>
<linearGradient id="paint5_linear_11_10" x1="14" y1="310" x2="394" y2="24" gradientUnits="userSpaceOnUse">
<stop stop-opacity="0.15"/>
<stop offset="1" stop-opacity="0"/>
</linearGradient>
<linearGradient id="paint6_linear_11_10" x1="178" y1="2.5843e-06" x2="178" y2="322" gradientUnits="userSpaceOnUse">
<stop stop-color="#886A29" stop-opacity="0.69"/>
<stop offset="1" stop-color="#886A29" stop-opacity="0.48"/>
</linearGradient>
</defs>
</svg>
